{
  "$schema": "https://docs.renovatebot.com/renovate-schema.json",
  "extends": [
    "github>platform-engineering-org/.github"
  ],
  "regexManagers": [
    {
      "customType": "regex",
      "fileMatch": [
        "^images\\/eclipse-chariott\\/(chariott|kv-app)/Containerfile$"
      ],
      "matchStrings": [
        "ARG VERSION=\"(?<currentDigest>.*?)\"\\s"
      ],
      "packageNameTemplate": "eclipse-chariott/chariott",
      "depNameTemplate": "https://github.com/eclipse-chariott/chariott/",
      "currentValueTemplate": "main",
      "datasourceTemplate": "git-refs"
    }
  ]
}
